Assignment 4 Q2
…
lb_size_2 <- lobster_size_abundance %>%
  filter(SITE == "AQUE" | SITE == "CARP" | SITE == "IVEE" | SITE == "MOHK" | SITE == "NAPL", YEAR == "2017",  COUNT != "0") %>%
  select(YEAR,SITE,SIZE,COUNT) 

sz_expand_2 <- lb_size_2[rep(1:nrow(lb_size_2), lb_size_2[["COUNT"]]), ]
sz_expand_2$SITE<-as.factor(sz_expand_2$SITE)
sz_expand_2

## # A tibble: 1,668 x 4
##     YEAR SITE   SIZE COUNT
##    <int> <fct> <int> <int>
##  1  2017 AQUE     45     1
##  2  2017 AQUE     75     1
##  3  2017 AQUE     50     1
##  4  2017 AQUE     60     1
##  5  2017 AQUE     75     1
##  6  2017 AQUE     80     1
##  7  2017 AQUE     65     1
##  8  2017 AQUE     88     1
##  9  2017 AQUE     58     1
## 10  2017 AQUE     60     1
## # ... with 1,658 more rows
…
