Assignment 4 Q1
…
Fishing Pressure

fishing_pressure_month_year<- lobster_traps %>%
  filter(SITE == "AQUE" | SITE == "CARP" | SITE == "IVEE" | SITE == "MOHK" | SITE == "NAPL") %>%
  group_by(SITE, YEAR, MONTH) %>%
    select(YEAR,SITE,TRAPS)

## Adding missing grouping variables: `MONTH`

fishing_pressure_month_year

## # A tibble: 3,704 x 4
## # Groups:   SITE, YEAR, MONTH [150]
##    MONTH  YEAR SITE  TRAPS
##    <int> <int> <chr> <int>
##  1    10  2012 CARP      4
##  2    10  2012 CARP     14
##  3    10  2012 CARP     10
##  4    10  2012 CARP      7
##  5    10  2012 CARP     11
##  6    10  2012 CARP     12
##  7    10  2012 CARP     12
##  8    10  2012 CARP      2
##  9    10  2012 CARP     13
## 10    10  2012 CARP      5
## # ... with 3,694 more rows
…
